Chapter 3 데이터셋의 출처 | A Minimal Book Example
…
glimpse(senti_dic_df)

## Rows: 14,855
## Columns: 2
## $ X1 <chr> "(-;", "(;_;)", "(^^)", "(^-^)", "(^^*", "(^_^)", "(^_^;", "(^o^)",…
## $ X2 <dbl> 1, -1, 1, 1, 1, 1, -1, 1, -1, -1, -1, -1, 1, 1, 1, 1, 1, -1, 1, -1,…

senti_dic_df[1-5, ]

## # A tibble: 14,854 × 2
##    X1        X2
##    <chr>  <dbl>
##  1 (-;        1
##  2 (;_;)     -1
##  3 (^^)       1
##  4 (^^*       1
##  5 (^_^)      1
##  6 (^_^;     -1
##  7 (^o^)      1
##  8 (-_-)     -1
##  9 (T_T)     -1
## 10 (ㅡㅡ)    -1
## # … with 14,844 more rows
…
